#theta xip(0,0) xip(0,1) xip(0,2) xip(1,1) xip(1,2) xip(2,2) xim(0,0) xim(0,1) xim(0,2) xim(1,1) xim(1,2) xim(2,2)
3.385839999999999961e+00 2.622009999999999905e-06 1.620569999999999970e-05 5.033650000000000163e-05 9.501840000000000492e-06 5.912510000000000080e-05 8.004979999999999377e-05 3.076459999999999743e-07 3.274850000000000079e-06 3.095030000000000079e-05 2.253329999999999990e-05 8.189329999999999653e-07 2.556459999999999915e-05
7.810369999999999813e+00 1.262389999999999953e-05 9.248179999999999265e-06 9.067080000000000270e-06 3.033100000000000149e-05 2.229669999999999948e-05 3.888690000000000202e-05 -5.136820000000000227e-06 1.475049999999999963e-06 -5.817180000000000266e-06 9.170159999999999629e-06 7.399430000000000236e-06 2.405120000000000107e-05
1.799360000000000070e+01 9.085290000000000219e-06 3.661550000000000120e-06 1.170490000000000037e-05 8.745150000000000457e-06 1.373889999999999987e-05 2.677589999999999888e-05 4.866190000000000245e-06 5.969840000000000258e-06 5.140050000000000025e-06 7.315079999999999934e-06 6.227469999999999687e-06 1.246510000000000031e-05
4.137960000000000349e+01 2.539789999999999954e-06 2.511890000000000187e-06 2.313180000000000018e-06 5.697390000000000012e-06 3.484009999999999869e-06 1.340739999999999974e-05 2.281320000000000208e-06 1.078030000000000078e-06 1.440219999999999909e-06 2.035370000000000047e-06 4.146730000000000022e-06 8.629509999999999986e-06
9.470820000000000505e+01 4.625889999999999873e-07 1.682499999999999985e-06 1.411050000000000026e-06 3.092410000000000094e-06 1.068989999999999992e-06 3.039209999999999909e-06 7.768000000000000208e-07 1.042870000000000020e-06 1.170319999999999961e-06 9.580209999999999201e-07 2.563580000000000195e-06 5.477029999999999804e-06
2.140900000000000034e+02 1.518869999999999889e-07 1.460609999999999895e-06 6.883389999999999541e-07 2.477320000000000110e-06 1.321220000000000074e-06 -6.053020000000000027e-07 7.354079999999999900e-07 5.472200000000000521e-07 3.768800000000000237e-07 7.603530000000000324e-07 7.515120000000000394e-07 2.333190000000000102e-06
